{
  "pageTittle": "Магазин ювелирных изделий Олимп",
  "products" : [
    {
      "id": 1,
      "name": "Золотое кольцо «Бриллианты Якутии»",
      "price": 21990,
      "description": "Кольцо с 22 бриллиантами, 0.59 карат чистота 6, Белое золото 585 пробы",
      "img": "./img/as.jpeg"
    },
    {
      "id": 2,
      "name": "Золотое украшение c топазами и бриллиантами",
      "price": 23990,
      "description": "Шейное укр. с 3 бриллиантами, 0.03 карат, Белое золото 585 пробы",
      "img": "./img/jewel.jpeg"

    },
    {
      "id": 3,
      "name": "Золотые серьги с бриллиантами «Бриллианты Якутии»",
      "price": 44990,
      "description": "Серьги с 38 бриллиантами, 0.49 карат, цвет 3,Белое золото 585 пробы",
      "img": "./img/jewel1.jpeg"

    },
    {
      "id": 4,
      "name": "Золотое кольцо с сапфирами и бриллиантами",
      "price": 21990,
      "description": "Кольцо с 30 бриллиантами, 0.12 карат, Белое золото 585 пробы",
      "img": "./img/jewel2.jpeg"

    },
    {
      "id": 5,
      "name": "Золотое кольцо с сапфирами и бриллиантами",
      "price": 55190,
      "description": "Кольцо с 22 бриллиантами, 0.59 карат чистота 6, Белое золото 585 пробы",
      "img": "./img/jewel3.jpeg"

    },
    {
      "id": 6,
      "name": "Золотое обручальное кольцо с бриллиантами",
      "price": 49990,
      "description": "Кольцо с 150 бриллиантами, 0.26 карат, цвет 2, чистота 2",
      "img": "./img/df.jpeg"
    },
    {
      "id": 7,
      "name": "Золотые серьги с бриллиантами «Бриллианты Якутии»",
      "price": 44990,
      "description": "Серьги с 38 бриллиантами, 0.49 карат, цвет 3, Белое золото 585 пробы",
      "img": "./img/fc.jpeg"
    },
    {
      "id": 8,
      "name": "Золотое кольцо с сапфирами и бриллиантами",
      "price": 40990,
      "description": "Кольцо с 30 бриллиантами, 0.12 карат, Белое золото 585 пробы",
      "img": "./img/ff.jpeg"
    }
  ]







}